[
  {
    "description": "untitled App should display welcome message",
    "assertions": [
      {
        "passed": true
      }
    ],
    "duration": 2615
  },
  {
    "description": "Auth Page should login an user",
    "assertions": [
      {
        "passed": true
      }
    ],
    "duration": 1752
  },
  {
    "description": "Auth Page should register an user",
    "assertions": [
      {
        "passed": true
      }
    ],
    "duration": 6926
  },
  {
    "description": "Main Page should create a new article",
    "assertions": [
      {
        "passed": true
      }
    ],
    "duration": 2059
  },
  {
    "description": "Main Page should update headline",
    "assertions": [
      {
        "passed": true
      }
    ],
    "duration": 1906
  },
  {
    "description": "Main Page count the follower",
    "assertions": [
      {
        "passed": true
      }
    ],
    "duration": 1690
  },
  {
    "description": "Main Page add follower",
    "assertions": [
      {
        "passed": true
      }
    ],
    "duration": 2042
  },
  {
    "description": "Main Page delete follower",
    "assertions": [
      {
        "passed": true
      }
    ],
    "duration": 1732
  },
  {
    "description": "Main Page search articles",
    "assertions": [
      {
        "passed": true
      }
    ],
    "duration": 1862
  },
  {
    "description": "Profile Page update email",
    "assertions": [
      {
        "passed": true
      }
    ],
    "duration": 2648
  },
  {
    "description": "Profile Page update zip",
    "assertions": [
      {
        "passed": true
      }
    ],
    "duration": 2605
  },
  {
    "description": "Profile Page update password",
    "assertions": [
      {
        "passed": true
      }
    ],
    "duration": 2469
  }
]